[gd_scene load_steps=2 format=2]

[ext_resource path="res://ToggleMotion/Godot.tscn" type="PackedScene" id=1]

[node name="ToggleMotion" type="Node2D"]

[node name="Godot" parent="." instance=ExtResource( 1 )]
position = Vector2( 371, 327 )

[node name="Timer" type="Timer" parent="Godot"]
autostart = true

[node name="Button" type="Button" parent="."]
margin_left = 60.0
margin_top = 42.0
margin_right = 219.0
margin_bottom = 106.0
text = "Toggle Motion"
__meta__ = {
"_edit_use_anchors_": false
}

[connection signal="pressed" from="Button" to="Godot" method="_on_Button_pressed"]
